module gitea.s1.thoxy.xyz/thoxy/gclone

go 1.18

require (
	github.com/rclone/rclone v1.59.0
	github.com/spf13/cobra v1.5.0
	github.com/stretchr/testify v1.8.0
	golang.org/x/oauth2 v0.0.0-20220722155238-128564f6959c
	google.golang.org/api v0.91.0
)

require (
	bazil.org/fuse v0.0.0-20200524192727-fb710f7dfd05 // indirect
	cloud.google.com/go/compute v1.7.0 // indirect
	github.com/Azure/azure-pipeline-go v0.2.3 // indirect
	github.com/Azure/azure-storage-blob-go v0.15.0 // indirect
	github.com/Azure/go-autorest v14.2.0+incompatible // indirect
	github.com/Azure/go-autorest/autorest/adal v0.9.21 // indirect
	github.com/Azure/go-autorest/autorest/date v0.3.0 // indirect
	github.com/Azure/go-autorest/logger v0.2.1 // indirect
	github.com/Azure/go-autorest/tracing v0.6.0 // indirect
	github.com/Azure/go-ntlmssp v0.0.0-20220621081337-cb9428e4ac1e // indirect
	github.com/Max-Sum/base32768 v0.0.0-20191205131208-7937843c71d5 // indirect
	github.com/Microsoft/go-winio v0.5.2 // indirect
	github.com/ProtonMail/go-crypto v0.0.0-20220730123233-d6ffb7692adf // indirect
	github.com/Unknwon/goconfig v1.0.0 // indirect
	github.com/a8m/tree v0.0.0-20210414114729-ce3525c5c2ef // indirect
	github.com/aalpar/deheap v0.0.0-20210914013432-0cc84d79dec3 // indirect
	github.com/abbot/go-http-auth v0.4.0 // indirect
	github.com/anacrolix/dms v1.5.0 // indirect
	github.com/anacrolix/log v0.13.1 // indirect
	github.com/artyom/mtab v1.0.0 // indirect
	github.com/atotto/clipboard v0.1.4 // indirect
	github.com/aws/aws-sdk-go v1.44.70 // indirect
	github.com/beorn7/perks v1.0.1 // indirect
	github.com/buengese/sgzip v0.1.1 // indirect
	github.com/calebcase/tmpfile v1.0.3 // indirect
	github.com/cespare/xxhash/v2 v2.1.2 // indirect
	github.com/cloudflare/circl v1.2.0 // indirect
	github.com/colinmarc/hdfs/v2 v2.3.0 // indirect
	github.com/coreos/go-semver v0.3.0 // indirect
	github.com/coreos/go-systemd v0.0.0-20191104093116-d3cd4ed1dbcf // indirect
	github.com/cpuguy83/go-md2man/v2 v2.0.2 // indirect
	github.com/davecgh/go-spew v1.1.1 // indirect
	github.com/dropbox/dropbox-sdk-go-unofficial/v6 v6.0.4 // indirect
	github.com/gabriel-vasile/mimetype v1.4.1 // indirect
	github.com/gdamore/encoding v1.0.0 // indirect
	github.com/gdamore/tcell/v2 v2.5.2 // indirect
	github.com/go-chi/chi/v5 v5.0.7 // indirect
	github.com/go-ole/go-ole v1.2.6 // indirect
	github.com/gogo/protobuf v1.3.2 // indirect
	github.com/golang-jwt/jwt/v4 v4.4.2 // indirect
	github.com/golang/groupcache v0.0.0-20210331224755-41bb18bfe9da // indirect
	github.com/golang/protobuf v1.5.2 // indirect
	github.com/google/go-querystring v1.1.0 // indirect
	github.com/google/uuid v1.3.0 // indirect
	github.com/googleapis/enterprise-certificate-proxy v0.1.0 // indirect
	github.com/googleapis/gax-go/v2 v2.5.1 // indirect
	github.com/hanwen/go-fuse/v2 v2.1.0 // indirect
	github.com/hashicorp/errwrap v1.1.0 // indirect
	github.com/hashicorp/go-multierror v1.1.1 // indirect
	github.com/hashicorp/go-uuid v1.0.3 // indirect
	github.com/iguanesolutions/go-systemd/v5 v5.1.0 // indirect
	github.com/inconshreveable/mousetrap v1.0.0 // indirect
	github.com/jcmturner/aescts/v2 v2.0.0 // indirect
	github.com/jcmturner/dnsutils/v2 v2.0.0 // indirect
	github.com/jcmturner/gofork v1.7.6 // indirect
	github.com/jcmturner/goidentity/v6 v6.0.1 // indirect
	github.com/jcmturner/gokrb5/v8 v8.4.3 // indirect
	github.com/jcmturner/rpc/v2 v2.0.3 // indirect
	github.com/jlaffaye/ftp v0.0.0-20220630165035-11536801d1ff // indirect
	github.com/jmespath/go-jmespath v0.4.0 // indirect
	github.com/jzelinskie/whirlpool v0.0.0-20201016144138-0675e54bb004 // indirect
	github.com/klauspost/compress v1.15.9 // indirect
	github.com/klauspost/cpuid/v2 v2.1.0 // indirect
	github.com/koofr/go-httpclient v0.0.0-20200420163713-93aa7c75b348 // indirect
	github.com/koofr/go-koofrclient v0.0.0-20190724113126-8e5366da203a // indirect
	github.com/kr/fs v0.1.0 // indirect
	github.com/lucasb-eyer/go-colorful v1.2.0 // indirect
	github.com/lufia/plan9stats v0.0.0-20220517141722-cf486979b281 // indirect
	github.com/mattn/go-colorable v0.1.12 // indirect
	github.com/mattn/go-ieproxy v0.0.7 // indirect
	github.com/mattn/go-isatty v0.0.14 // indirect
	github.com/mattn/go-runewidth v0.0.13 // indirect
	github.com/matttproud/golang_protobuf_extensions v1.0.1 // indirect
	github.com/mitchellh/go-homedir v1.1.0 // indirect
	github.com/ncw/go-acd v0.0.0-20201019170801-fe55f33415b1 // indirect
	github.com/ncw/swift/v2 v2.0.1 // indirect
	github.com/patrickmn/go-cache v2.1.0+incompatible // indirect
	github.com/pengsrc/go-shared v0.2.1-0.20190131101655-1999055a4a14 // indirect
	github.com/pkg/sftp v1.13.5 // indirect
	github.com/pkg/xattr v0.4.7 // indirect
	github.com/pmezard/go-difflib v1.0.0 // indirect
	github.com/power-devops/perfstat v0.0.0-20220216144756-c35f1ee13d7c // indirect
	github.com/prometheus/client_golang v1.13.0 // indirect
	github.com/prometheus/client_model v0.2.0 // indirect
	github.com/prometheus/common v0.37.0 // indirect
	github.com/prometheus/procfs v0.8.0 // indirect
	github.com/putdotio/go-putio/putio v0.0.0-20200123120452-16d982cac2b8 // indirect
	github.com/rfjakob/eme v1.1.2 // indirect
	github.com/rivo/uniseg v0.3.4 // indirect
	github.com/russross/blackfriday/v2 v2.1.0 // indirect
	github.com/shirou/gopsutil/v3 v3.22.7 // indirect
	github.com/sirupsen/logrus v1.9.0 // indirect
	github.com/skratchdot/open-golang v0.0.0-20200116055534-eef842397966 // indirect
	github.com/spacemonkeygo/monkit/v3 v3.0.19 // indirect
	github.com/spf13/pflag v1.0.5 // indirect
	github.com/t3rm1n4l/go-mega v0.0.0-20220725095014-c4e0c2b5debf // indirect
	github.com/tklauser/go-sysconf v0.3.10 // indirect
	github.com/tklauser/numcpus v0.5.0 // indirect
	github.com/vivint/infectious v0.0.0-20200605153912-25a574ae18a3 // indirect
	github.com/winfsp/cgofuse v1.5.1-0.20220421173602-ce7e5a65cac7 // indirect
	github.com/xanzy/ssh-agent v0.3.1 // indirect
	github.com/youmark/pkcs8 v0.0.0-20201027041543-1326539a0a0a // indirect
	github.com/yunify/qingstor-sdk-go/v3 v3.2.0 // indirect
	github.com/yusufpapurcu/wmi v1.2.2 // indirect
	github.com/zeebo/blake3 v0.2.3 // indirect
	github.com/zeebo/errs v1.3.0 // indirect
	go.etcd.io/bbolt v1.3.6 // indirect
	go.opencensus.io v0.23.0 // indirect
	goftp.io/server v0.4.1 // indirect
	golang.org/x/crypto v0.0.0-20220722155217-630584e8d5aa // indirect
	golang.org/x/net v0.0.0-20220805013720-a33c5aa5df48 // indirect
	golang.org/x/sync v0.0.0-20220722155255-886fb9371eb4 // indirect
	golang.org/x/sys v0.0.0-20220804214406-8e32c043e418 // indirect
	golang.org/x/term v0.0.0-20220722155259-a9ba230a4035 // indirect
	golang.org/x/text v0.3.7 // indirect
	golang.org/x/time v0.0.0-20220722155302-e5dcc9cfc0b9 // indirect
	google.golang.org/appengine v1.6.7 // indirect
	google.golang.org/genproto v0.0.0-20220805133916-01dd62135a58 // indirect
	google.golang.org/grpc v1.48.0 // indirect
	google.golang.org/protobuf v1.28.1 // indirect
	gopkg.in/yaml.v2 v2.4.0 // indirect
	gopkg.in/yaml.v3 v3.0.1 // indirect
	storj.io/common v0.0.0-20220802175255-aae0c09ec9d4 // indirect
	storj.io/drpc v0.0.32 // indirect
	storj.io/uplink v1.9.0 // indirect
)
